ISSS608 Visual Analytics and Applications - Take-home Exercise 3
…
Text Sensing with tidytext

In this section, you will learn how to perform basic text sensing using appropriate functions of tidytext package.

Simple word count

The code chunk below calculates number of times the word fish appeared in the field product_services.

mc3_nodes %>% 
    mutate(n_fish = str_count(product_services, "fish")) 

# A tibble: 27,622 × 6
   id                          country type  revenue_omu product_services n_fish
   <chr>                       <chr>   <chr>       <dbl> <chr>             <int>
 1 Jones LLC                   ZH      Comp…  310612303. Automobiles           0
 2 Coleman, Hall and Lopez     ZH      Comp…  162734684. Passenger cars,…      0
 3 Aqua Advancements Sashimi … Oceanus Comp…  115004667. Holding firm wh…      0
 4 Makumba Ltd. Liability Co   Utopor… Comp…   90986413. Car service, ca…      0
 5 Taylor, Taylor and Farrell  ZH      Comp…   81466667. Fully electric …      0
 6 Harmon, Edwards and Bates   ZH      Comp…   75070435. Discount superm…      0
 7 Punjab s Marine conservati… Riodel… Comp…   72167572. Beef, pork, chi…      0
 8 Assam   Limited Liability … Utopor… Comp…   72162317. Power and Gas s…      0
 9 Ianira Starfish Sagl Import Rio Is… Comp…   68832979. Light commercia…      0
10 Moran, Lewis and Jimenez    ZH      Comp…   65592906. Automobiles, tr…      0
# ℹ 27,612 more rows
…
